[
    {
        "nid": "Solar_Brace",
        "name": "Solar Brace",
        "desc": "Promotes Ephraim.",
        "icon_nid": "Boosters",
        "icon_index": [
            0,
            16
        ],
        "components": [
            [
                "usable",
                null
            ],
            [
                "target_ally",
                null
            ],
            [
                "uses",
                1
            ],
            [
                "uses_options",
                {
                    "lose_uses_on_miss": false,
                    "one_loss_per_combat": false
                }
            ],
            [
                "usable_in_base",
                null
            ],
            [
                "eval_target_restrict",
                "unit.level >= 10"
            ],
            [
                "promote",
                null
            ],
            [
                "prf_class",
                [
                    "Eirika_Lord"
                ]
            ]
        ]
    }
]